%YAML 1.1
%TAG !u! tag:unity3d.com,2011:
--- !u!1045 &1
EditorBuildSettings:
  m_ObjectHideFlags: 0
  serializedVersion: 2
  m_Scenes:
  - enabled: 1
    path: Assets/Scenes/Menu.unity
    guid: 33880899b16a191419d5aa98d0857d09
  - enabled: 1
    path: Assets/Scenes/Tutorial.unity
    guid: 1083dbc8efa416b48b92c0f4f596b4d9
  - enabled: 1
    path: Assets/Scenes/Tutorial2d.unity
    guid: d6b5a5e5382f47644a6c0164d202cc6b
  - enabled: 1
    path: Assets/Scenes/CinematicaInicial.unity
    guid: f79e437ef1c99d749a3fcdd415e4fbd4
  - enabled: 1
    path: Assets/Scenes/N1.unity
    guid: 9fc0d4010bbf28b4594072e72b8655ab
  - enabled: 1
    path: Assets/Scenes/N1P2.unity
    guid: 436c7457e51955b488da5bbb5369c2aa
  - enabled: 1
    path: Assets/Scenes/Logro1.unity
    guid: b810184322135004d8813e151d4ab3d7
  - enabled: 1
    path: Assets/Scenes/N2P3D.unity
    guid: 60c5d253509034a438d83c7b6595fefa
  - enabled: 1
    path: Assets/Scenes/Logro2.unity
    guid: 479e9b641fac0bd428ca0080da5b6858
  - enabled: 1
    path: Assets/Scenes/N3P2D.unity
    guid: 43e3a99e76c4a8b4690d2a9d175586c7
  - enabled: 1
    path: Assets/Scenes/N3P3D.unity
    guid: 7450f0aea29305f409d3d6de79b39c27
  - enabled: 1
    path: Assets/Scenes/CinematicaFinal.unity
    guid: 1e915bec1c8a0e644a330c3fb4db92b2
  - enabled: 1
    path: Assets/Scenes/EscenaFinal.unity
    guid: 083787c1c62df034a91d54a32390b279
  m_configObjects: {}
